"","Dimension 1","Dimension 2","Dimension 3","Dimension 4","Dimension 5","Dimension 6","Dimension 7","Dimension 8"
"eigenvalue",4.27299315646957,1.37749478197161,1.05289633461471,0.68445555097708,0.458263839947343,0.095140898979762,0.0413797881372268,0.0173756489026916
"variance percent",53.4124144558697,17.2186847746452,13.1612041826839,8.5556943872135,5.72829799934178,1.18926123724702,0.517247351715336,0.217195611283644
"cumulative variance percent",53.4124144558697,70.6310992305148,83.7923034131987,92.3479978004122,98.076295799754,99.265557037001,99.7828043887164,100
"log_ls",22.5192629447993,1.28111362553426,0.0577125747096529,0.216841797246147,0.39522760938184,1.40825075499349,8.26610698191319,65.8554837114221
"log_ha",20.6124227354355,5.22168509155911,0.00406061627292718,1.28766817184826,0.0773991825884924,15.2426265298179,56.6186010929935,0.93553657948433
"log_hmax",21.8188782974298,2.46280692431919,0.0377359881167469,0.112479971435743,0.596071410868342,11.4656239429685,32.9687443176831,30.5376591471786
"log_hp",20.6762295619684,1.71899225208056,0.443003276690416,0.00681115227571752,4.64974991754337,69.4637279989809,0.796099988475658,2.24538585198498
"log_Aad",2.52513801761427,42.3967431700114,0.0206505543510413,28.8090962899961,23.7735890988451,1.33627004364098,1.12600217055365,0.0125106549875678
"log_Aav",1.41399160916727,32.6322121000274,11.2157806587019,54.3302106603505,0.00110820746392208,0.0280525208668585,0.0790296294541534,0.299614613968123
"log_Apv",10.3119382432469,12.7460373392165,3.92910298840936,5.45358882000213,66.3527375394811,1.02421441852175,0.091954853993286,0.0904257971290024
"log_Apd",0.122138590338583,1.54040949725167,84.291953342748,9.7833031368455,4.15411703382792,0.0312337902095125,0.0534609649335389,0.0233836438452803
